{
  "source": "main-script.mjs",
  "defaultSite": "duckduck",
  "logWebRequestRequests": false,
  "ctxSearchEngine": {
    "label": "DuckDuckGo Search",
    "url": "https://duckduckgo.com",
    "q": "q"
  },
  "menu": {
    "source": "menu-script.mjs",
    "items": [
      {
        "label": "ext1",
        "handler": "alertHandler"
      },
      {
        "label": "ext2",
        "handler": "alertHandler"
      }
    ]
  },
  "sites": {
    "duckduck": {
      "title": "Ricerca",
      "link": "https://duckduckgo.com",
      "reload": true,
      "agent": "Mozilla/5.0 (Windows NT 10.0; Win64; x64) AppleWebKit/537.36 (KHTML, like Gecko) Chrome/90.0.4430.212 Safari/537.36",
      "tools": true,
      "menu": {
        "source": "menu-script.mjs",
        "items": [
          {
            "label": "ext1",
            "handler": "alertHandler"
          },
          {
            "label": "ext2",
            "handler": "alertHandler"
          }
        ]
      },
      "css": {
        "enable": true,
        "type": "file",
        "source": "mastodon-fix.css"
      },
      "script": {
        "enable": false,
        "type": "file",
        "source": "script.mjs"
      }
    },
    "twitter": {
      "title": "twitter",
      "link": "https://twitter.com",
      "reload": true,
      "agent": "Mozilla/5.0 (Windows NT 10.0; Win64; x64) AppleWebKit/537.36 (KHTML, like Gecko) Chrome/90.0.4430.212 Safari/537.36",
      "tools": true,
      "css": {
        "enable": true,
        "type": "file",
        "source": "mastodon-fix.css"
      }
    },
    "mastodon1": {
      "title": "livellosegreto.it",
      "link": "https://livellosegreto.it",
      "reload": true,
      "agent": "Mozilla/5.0 (Windows NT 10.0; Win64; x64) AppleWebKit/537.36 (KHTML, like Gecko) Chrome/90.0.4430.212 Safari/537.36",
      "tools": true,
      "css": {
        "enable": true,
        "type": "file",
        "source": "mastodon-fix.css"
      }
    },
    "mastodon2": {
      "title": "octodon.social",
      "link": "https://octodon.social",
      "reload": true,
      "agent": "Mozilla/5.0 (Windows NT 10.0; Win64; x64) AppleWebKit/537.36 (KHTML, like Gecko) Chrome/90.0.4430.212 Safari/537.36",
      "tools": true,
      "css": {
        "enable": true,
        "type": "file",
        "source": "mastodon-fix.css"
      }
    },
    "tumblr": {
      "title": "tumblr",
      "link": "https://tumblr.com",
      "reload": true,
      "agent": "Mozilla/5.0 (Windows NT 10.0; Win64; x64) AppleWebKit/537.36 (KHTML, like Gecko) Chrome/90.0.4430.212 Safari/537.36",
      "tools": true,
      "css": {
        "enable": false,
        "type": "file",
        "source": "mastodon-fix.css"
      }
    },
    "bluesky": {
      "title": "bluesky",
      "link": "https://bsky.app/",
      "reload": true,
      "agent": "Mozilla/5.0 (Windows NT 10.0; Win64; x64) AppleWebKit/537.36 (KHTML, like Gecko) Chrome/90.0.4430.212 Safari/537.36",
      "tools": true,
      "css": {
        "enable": false,
        "type": "file",
        "source": "mastodon-fix.css"
      }
    }
  }
}
